<?xml version='1.0' encoding='UTF-8' ?>
<svg xmlns='http://www.w3.org/2000/svg' xmlns:xlink='http://www.w3.org/1999/xlink' class='svglite' width='504.00pt' height='360.00pt' viewBox='0 0 504.00 360.00'>
<defs>
  <style type='text/css'><![CDATA[
    .svglite line, .svglite polyline, .svglite polygon, .svglite path, .svglite rect, .svglite circle {
      fill: none;
      stroke: #000000;
      stroke-linecap: round;
      stroke-linejoin: round;
      stroke-miterlimit: 10.00;
    }
  ]]></style>
</defs>
<rect width='100%' height='100%' style='stroke: none; fill: #FFFFFF;'/>
<defs>
  <clipPath id='cpMC4wMHw1MDQuMDB8MC4wMHwzNjAuMDA='>
    <rect x='0.00' y='0.00' width='504.00' height='360.00' />
  </clipPath>
</defs>
<g clip-path='url(#cpMC4wMHw1MDQuMDB8MC4wMHwzNjAuMDA=)'>
<rect x='0.000000000000064' y='0.00' width='504.00' height='360.00' style='stroke-width: 1.07; stroke: #FFFFFF; fill: #FFFFFF;' />
</g>
<defs>
  <clipPath id='cpMzMuMjV8NDI2LjgzfDM5LjA3fDMyOC4yNQ=='>
    <rect x='33.25' y='39.07' width='393.57' height='289.18' />
  </clipPath>
</defs>
<g clip-path='url(#cpMzMuMjV8NDI2LjgzfDM5LjA3fDMyOC4yNQ==)'>
<rect x='33.25' y='39.07' width='393.57' height='289.18' style='stroke-width: 1.07; stroke: none; fill: #EBEBEB;' />
<polyline points='33.25,271.51 426.83,271.51 ' style='stroke-width: 0.53; stroke: #FFFFFF; stroke-linecap: butt;' />
<polyline points='33.25,184.31 426.83,184.31 ' style='stroke-width: 0.53; stroke: #FFFFFF; stroke-linecap: butt;' />
<polyline points='33.25,97.12 426.83,97.12 ' style='stroke-width: 0.53; stroke: #FFFFFF; stroke-linecap: butt;' />
<polyline points='70.22,328.25 70.22,39.07 ' style='stroke-width: 0.53; stroke: #FFFFFF; stroke-linecap: butt;' />
<polyline points='165.63,328.25 165.63,39.07 ' style='stroke-width: 0.53; stroke: #FFFFFF; stroke-linecap: butt;' />
<polyline points='261.04,328.25 261.04,39.07 ' style='stroke-width: 0.53; stroke: #FFFFFF; stroke-linecap: butt;' />
<polyline points='356.45,328.25 356.45,39.07 ' style='stroke-width: 0.53; stroke: #FFFFFF; stroke-linecap: butt;' />
<polyline points='33.25,315.11 426.83,315.11 ' style='stroke-width: 1.07; stroke: #FFFFFF; stroke-linecap: butt;' />
<polyline points='33.25,227.91 426.83,227.91 ' style='stroke-width: 1.07; stroke: #FFFFFF; stroke-linecap: butt;' />
<polyline points='33.25,140.72 426.83,140.72 ' style='stroke-width: 1.07; stroke: #FFFFFF; stroke-linecap: butt;' />
<polyline points='33.25,53.52 426.83,53.52 ' style='stroke-width: 1.07; stroke: #FFFFFF; stroke-linecap: butt;' />
<polyline points='117.92,328.25 117.92,39.07 ' style='stroke-width: 1.07; stroke: #FFFFFF; stroke-linecap: butt;' />
<polyline points='213.33,328.25 213.33,39.07 ' style='stroke-width: 1.07; stroke: #FFFFFF; stroke-linecap: butt;' />
<polyline points='308.74,328.25 308.74,39.07 ' style='stroke-width: 1.07; stroke: #FFFFFF; stroke-linecap: butt;' />
<polyline points='404.16,328.25 404.16,39.07 ' style='stroke-width: 1.07; stroke: #FFFFFF; stroke-linecap: butt;' />
<polyline points='51.14,105.84 55.91,104.10 60.68,103.66 65.46,104.97 70.23,102.79 74.99,104.97 79.76,101.04 84.54,103.22 89.31,100.61 94.07,100.61 98.84,101.92 103.62,101.04 108.39,96.25 113.16,96.68 117.92,97.12 122.70,95.81 127.47,97.56 132.24,98.43 137.01,95.81 141.79,97.12 146.55,95.81 151.32,96.25 156.09,96.25 160.87,97.99 165.64,94.07 170.40,94.94 175.17,94.50 179.95,93.63 184.72,93.20 189.49,93.20 194.25,93.20 199.03,91.02 203.80,90.58 208.57,90.14 213.33,89.27 218.11,88.84 222.88,87.53 227.65,87.96 232.42,86.66 237.20,86.22 241.96,84.91 246.73,83.17 251.50,81.86 256.28,81.43 261.05,80.12 265.81,79.68 270.58,78.81 275.36,78.37 280.13,77.07 284.90,76.63 289.66,75.76 294.44,73.58 299.21,73.14 303.98,71.83 303.98,71.83 308.74,70.53 308.74,70.53 313.53,69.65 313.53,69.65 318.29,68.78 318.29,68.78 323.06,68.78 323.06,68.78 327.83,64.86 327.83,64.86 332.61,64.86 332.61,64.86 337.37,63.11 337.37,63.11 342.14,62.24 342.14,62.24 346.91,61.37 346.91,61.37 351.69,60.50 351.69,60.50 356.46,59.63 356.46,59.63 361.22,57.88 361.22,57.88 365.99,57.88 365.99,57.88 370.77,56.57 370.77,56.57 375.54,54.39 375.54,54.39 380.31,55.27 380.31,55.27 385.07,54.39 385.07,54.39 389.85,53.52 389.85,53.52 394.62,53.09 394.62,53.09 399.39,52.21 399.39,52.21 404.16,54.83 404.16,54.83 408.94,53.96 408.94,53.96 ' style='stroke-width: 1.07; stroke: #F8766D; stroke-linecap: butt;' />
<polyline points='51.14,180.83 55.91,180.39 60.68,180.39 65.46,183.01 70.23,181.26 74.99,183.44 79.76,180.39 84.54,183.01 89.31,179.95 94.07,180.39 98.84,181.70 103.62,180.83 108.39,176.47 113.16,176.90 117.92,177.78 122.70,175.60 127.47,177.78 132.24,179.08 137.01,176.03 141.79,177.34 146.55,176.03 151.32,176.47 156.09,176.90 160.87,178.21 165.64,174.29 170.40,175.16 175.17,174.29 179.95,174.29 184.72,173.42 189.49,173.85 194.25,173.42 199.03,171.24 203.80,171.67 208.57,170.36 213.33,169.93 218.11,169.49 222.88,168.18 227.65,168.18 232.42,166.88 237.20,166.88 241.96,165.57 246.73,163.82 251.50,162.08 256.28,161.64 261.05,160.34 265.81,159.46 270.58,158.59 275.36,158.16 280.13,156.85 284.90,156.85 289.66,156.41 294.44,155.10 299.21,154.67 303.98,153.80 303.98,153.80 308.74,152.49 308.74,152.49 313.53,151.62 313.53,151.62 318.29,151.18 318.29,151.18 323.06,150.74 323.06,150.74 327.83,147.69 327.83,147.69 332.61,147.69 332.61,147.69 337.37,145.95 337.37,145.95 342.14,145.08 342.14,145.08 346.91,144.21 346.91,144.21 351.69,143.77 351.69,143.77 356.46,142.90 356.46,142.90 361.22,141.15 361.22,141.15 365.99,141.15 365.99,141.15 370.77,139.85 370.77,139.85 375.54,138.10 375.54,138.10 380.31,138.97 380.31,138.97 385.07,138.10 385.07,138.10 389.85,137.23 389.85,137.23 394.62,136.79 394.62,136.79 399.39,135.92 399.39,135.92 404.16,138.54 404.16,138.54 408.94,137.67 408.94,137.67 ' style='stroke-width: 1.07; stroke: #00BA38; stroke-linecap: butt;' />
<polyline points='51.14,247.97 55.91,247.53 60.68,247.09 65.46,250.15 70.23,247.97 74.99,250.15 79.76,247.53 84.54,249.71 89.31,247.53 94.07,247.97 98.84,248.84 103.62,248.40 108.39,245.35 113.16,245.79 117.92,246.66 122.70,244.91 127.47,246.66 132.24,247.53 137.01,245.35 141.79,246.66 146.55,244.91 151.32,245.79 156.09,246.22 160.87,247.09 165.64,244.48 170.40,244.48 175.17,243.61 179.95,243.61 184.72,243.17 189.49,243.17 194.25,242.73 199.03,240.99 203.80,240.99 208.57,240.12 213.33,239.68 218.11,239.68 222.88,237.94 227.65,238.38 232.42,237.07 237.20,237.07 241.96,236.20 246.73,234.89 251.50,233.58 256.28,233.14 261.05,232.27 265.81,231.40 270.58,230.96 275.36,230.53 280.13,229.22 284.90,229.22 289.66,229.22 294.44,228.35 299.21,227.91 303.98,227.04 303.98,227.04 308.74,225.73 308.74,225.73 313.53,224.86 313.53,224.86 318.29,224.42 318.29,224.42 323.06,224.42 323.06,224.42 327.83,221.37 327.83,221.37 332.61,221.37 332.61,221.37 337.37,220.06 337.37,220.06 342.14,219.63 342.14,219.63 346.91,219.19 346.91,219.19 351.69,218.32 351.69,218.32 356.46,217.45 356.46,217.45 361.22,216.14 361.22,216.14 365.99,216.58 365.99,216.58 370.77,215.70 370.77,215.70 375.54,213.96 375.54,213.96 380.31,215.27 380.31,215.27 385.07,214.40 385.07,214.40 389.85,213.96 389.85,213.96 394.62,213.52 394.62,213.52 399.39,213.09 399.39,213.09 404.16,215.70 404.16,215.70 408.94,214.83 408.94,214.83 ' style='stroke-width: 1.07; stroke: #619CFF; stroke-linecap: butt;' />
</g>
<g clip-path='url(#cpMC4wMHw1MDQuMDB8MC4wMHwzNjAuMDA=)'>
<text x='28.32' y='318.26' text-anchor='end' style='font-size: 8.80px; fill: #4D4D4D; font-family: Arial;' textLength='4.90px' lengthAdjust='spacingAndGlyphs'>0</text>
<text x='28.32' y='231.07' text-anchor='end' style='font-size: 8.80px; fill: #4D4D4D; font-family: Arial;' textLength='9.79px' lengthAdjust='spacingAndGlyphs'>20</text>
<text x='28.32' y='143.87' text-anchor='end' style='font-size: 8.80px; fill: #4D4D4D; font-family: Arial;' textLength='9.79px' lengthAdjust='spacingAndGlyphs'>40</text>
<text x='28.32' y='56.68' text-anchor='end' style='font-size: 8.80px; fill: #4D4D4D; font-family: Arial;' textLength='9.79px' lengthAdjust='spacingAndGlyphs'>60</text>
<polyline points='30.51,315.11 33.25,315.11 ' style='stroke-width: 1.07; stroke: #333333; stroke-linecap: butt;' />
<polyline points='30.51,227.91 33.25,227.91 ' style='stroke-width: 1.07; stroke: #333333; stroke-linecap: butt;' />
<polyline points='30.51,140.72 33.25,140.72 ' style='stroke-width: 1.07; stroke: #333333; stroke-linecap: butt;' />
<polyline points='30.51,53.52 33.25,53.52 ' style='stroke-width: 1.07; stroke: #333333; stroke-linecap: butt;' />
<polyline points='117.92,330.99 117.92,328.25 ' style='stroke-width: 1.07; stroke: #333333; stroke-linecap: butt;' />
<polyline points='213.33,330.99 213.33,328.25 ' style='stroke-width: 1.07; stroke: #333333; stroke-linecap: butt;' />
<polyline points='308.74,330.99 308.74,328.25 ' style='stroke-width: 1.07; stroke: #333333; stroke-linecap: butt;' />
<polyline points='404.16,330.99 404.16,328.25 ' style='stroke-width: 1.07; stroke: #333333; stroke-linecap: butt;' />
<text x='117.92' y='339.49' text-anchor='middle' style='font-size: 8.80px; fill: #4D4D4D; font-family: Arial;' textLength='19.58px' lengthAdjust='spacingAndGlyphs'>1960</text>
<text x='213.33' y='339.49' text-anchor='middle' style='font-size: 8.80px; fill: #4D4D4D; font-family: Arial;' textLength='19.58px' lengthAdjust='spacingAndGlyphs'>1980</text>
<text x='308.74' y='339.49' text-anchor='middle' style='font-size: 8.80px; fill: #4D4D4D; font-family: Arial;' textLength='19.58px' lengthAdjust='spacingAndGlyphs'>2000</text>
<text x='404.16' y='339.49' text-anchor='middle' style='font-size: 8.80px; fill: #4D4D4D; font-family: Arial;' textLength='19.58px' lengthAdjust='spacingAndGlyphs'>2020</text>
<text x='230.04' y='352.10' text-anchor='middle' style='font-size: 11.00px; font-family: Arial;' textLength='94.20px' lengthAdjust='spacingAndGlyphs'>Données annuelles</text>
<text transform='translate(13.37,183.66) rotate(-90)' text-anchor='middle' style='font-size: 11.00px; font-family: Arial;' textLength='118.03px' lengthAdjust='spacingAndGlyphs'>Années de vie restantes</text>
<rect x='437.78' y='144.36' width='60.74' height='78.60' style='stroke-width: 1.07; stroke: none; fill: #FFFFFF;' />
<text x='443.26' y='158.95' style='font-size: 11.00px; font-family: Arial;' textLength='23.23px' lengthAdjust='spacingAndGlyphs'>AGE</text>
<rect x='443.26' y='165.64' width='17.28' height='17.28' style='stroke-width: 1.07; stroke: none; fill: #F2F2F2;' />
<line x1='444.99' y1='174.28' x2='458.82' y2='174.28' style='stroke-width: 1.07; stroke: #F8766D; stroke-linecap: butt;' />
<rect x='443.26' y='182.92' width='17.28' height='17.28' style='stroke-width: 1.07; stroke: none; fill: #F2F2F2;' />
<line x1='444.99' y1='191.56' x2='458.82' y2='191.56' style='stroke-width: 1.07; stroke: #00BA38; stroke-linecap: butt;' />
<rect x='443.26' y='200.20' width='17.28' height='17.28' style='stroke-width: 1.07; stroke: none; fill: #F2F2F2;' />
<line x1='444.99' y1='208.84' x2='458.82' y2='208.84' style='stroke-width: 1.07; stroke: #619CFF; stroke-linecap: butt;' />
<text x='466.02' y='177.43' style='font-size: 8.80px; font-family: Arial;' textLength='26.42px' lengthAdjust='spacingAndGlyphs'>20 ans</text>
<text x='466.02' y='194.71' style='font-size: 8.80px; font-family: Arial;' textLength='26.42px' lengthAdjust='spacingAndGlyphs'>40 ans</text>
<text x='466.02' y='211.99' style='font-size: 8.80px; font-family: Arial;' textLength='26.42px' lengthAdjust='spacingAndGlyphs'>60 ans</text>
<text x='33.25' y='31.17' style='font-size: 11.00px; font-family: Arial;' textLength='77.03px' lengthAdjust='spacingAndGlyphs'>Source : INSEE</text>
<text x='33.25' y='14.94' style='font-size: 13.20px; font-family: Arial;' textLength='251.51px' lengthAdjust='spacingAndGlyphs'>Espérance de vie en France Métropolitaine</text>
</g>
</svg>
