<?xml version='1.0' encoding='UTF-8' ?>
<svg xmlns='http://www.w3.org/2000/svg' xmlns:xlink='http://www.w3.org/1999/xlink' class='svglite' width='504.00pt' height='360.00pt' viewBox='0 0 504.00 360.00'>
<defs>
  <style type='text/css'><![CDATA[
    .svglite line, .svglite polyline, .svglite polygon, .svglite path, .svglite rect, .svglite circle {
      fill: none;
      stroke: #000000;
      stroke-linecap: round;
      stroke-linejoin: round;
      stroke-miterlimit: 10.00;
    }
  ]]></style>
</defs>
<rect width='100%' height='100%' style='stroke: none; fill: #FFFFFF;'/>
<defs>
  <clipPath id='cpMC4wMHw1MDQuMDB8MC4wMHwzNjAuMDA='>
    <rect x='0.00' y='0.00' width='504.00' height='360.00' />
  </clipPath>
</defs>
<g clip-path='url(#cpMC4wMHw1MDQuMDB8MC4wMHwzNjAuMDA=)'>
</g>
<defs>
  <clipPath id='cpNTkuMDR8NDczLjc2fDU5LjA0fDI4Ni41Ng=='>
    <rect x='59.04' y='59.04' width='414.72' height='227.52' />
  </clipPath>
</defs>
<g clip-path='url(#cpNTkuMDR8NDczLjc2fDU5LjA0fDI4Ni41Ng==)'>
<rect x='74.40' y='273.58' width='32.00' height='4.55' style='stroke-width: 0.75; stroke: #D3D3D3; fill: #543005;' />
<rect x='106.40' y='273.58' width='32.00' height='4.55' style='stroke-width: 0.75; stroke: #D3D3D3; fill: #8C510A;' />
<rect x='138.40' y='273.58' width='32.00' height='4.55' style='stroke-width: 0.75; stroke: #D3D3D3; fill: #BF812D;' />
<rect x='170.40' y='273.58' width='32.00' height='4.55' style='stroke-width: 0.75; stroke: #D3D3D3; fill: #DFC27D;' />
<rect x='202.40' y='273.58' width='32.00' height='4.55' style='stroke-width: 0.75; stroke: #D3D3D3; fill: #F6E8C3;' />
<rect x='234.40' y='273.58' width='32.00' height='4.55' style='stroke-width: 0.75; stroke: #D3D3D3; fill: #F5F5F5;' />
<rect x='266.40' y='273.58' width='32.00' height='4.55' style='stroke-width: 0.75; stroke: #D3D3D3; fill: #C7EAE5;' />
<rect x='298.40' y='273.58' width='32.00' height='4.55' style='stroke-width: 0.75; stroke: #D3D3D3; fill: #80CDC1;' />
<rect x='330.40' y='273.58' width='32.00' height='4.55' style='stroke-width: 0.75; stroke: #D3D3D3; fill: #35978F;' />
<rect x='362.40' y='273.58' width='32.00' height='4.55' style='stroke-width: 0.75; stroke: #D3D3D3; fill: #01665E;' />
<rect x='394.40' y='273.58' width='32.00' height='4.55' style='stroke-width: 0.75; stroke: #D3D3D3; fill: #003C30;' />
<rect x='74.40' y='267.88' width='32.00' height='4.55' style='stroke-width: 0.75; stroke: #D3D3D3; fill: #8E0152;' />
<rect x='106.40' y='267.88' width='32.00' height='4.55' style='stroke-width: 0.75; stroke: #D3D3D3; fill: #C51B7D;' />
<rect x='138.40' y='267.88' width='32.00' height='4.55' style='stroke-width: 0.75; stroke: #D3D3D3; fill: #DE77AE;' />
<rect x='170.40' y='267.88' width='32.00' height='4.55' style='stroke-width: 0.75; stroke: #D3D3D3; fill: #F1B6DA;' />
<rect x='202.40' y='267.88' width='32.00' height='4.55' style='stroke-width: 0.75; stroke: #D3D3D3; fill: #FDE0EF;' />
<rect x='234.40' y='267.88' width='32.00' height='4.55' style='stroke-width: 0.75; stroke: #D3D3D3; fill: #F7F7F7;' />
<rect x='266.40' y='267.88' width='32.00' height='4.55' style='stroke-width: 0.75; stroke: #D3D3D3; fill: #E6F5D0;' />
<rect x='298.40' y='267.88' width='32.00' height='4.55' style='stroke-width: 0.75; stroke: #D3D3D3; fill: #B8E186;' />
<rect x='330.40' y='267.88' width='32.00' height='4.55' style='stroke-width: 0.75; stroke: #D3D3D3; fill: #7FBC41;' />
<rect x='362.40' y='267.88' width='32.00' height='4.55' style='stroke-width: 0.75; stroke: #D3D3D3; fill: #4D9221;' />
<rect x='394.40' y='267.88' width='32.00' height='4.55' style='stroke-width: 0.75; stroke: #D3D3D3; fill: #276419;' />
<rect x='74.40' y='262.19' width='32.00' height='4.55' style='stroke-width: 0.75; stroke: #D3D3D3; fill: #40004B;' />
<rect x='106.40' y='262.19' width='32.00' height='4.55' style='stroke-width: 0.75; stroke: #D3D3D3; fill: #762A83;' />
<rect x='138.40' y='262.19' width='32.00' height='4.55' style='stroke-width: 0.75; stroke: #D3D3D3; fill: #9970AB;' />
<rect x='170.40' y='262.19' width='32.00' height='4.55' style='stroke-width: 0.75; stroke: #D3D3D3; fill: #C2A5CF;' />
<rect x='202.40' y='262.19' width='32.00' height='4.55' style='stroke-width: 0.75; stroke: #D3D3D3; fill: #E7D4E8;' />
<rect x='234.40' y='262.19' width='32.00' height='4.55' style='stroke-width: 0.75; stroke: #D3D3D3; fill: #F7F7F7;' />
<rect x='266.40' y='262.19' width='32.00' height='4.55' style='stroke-width: 0.75; stroke: #D3D3D3; fill: #D9F0D3;' />
<rect x='298.40' y='262.19' width='32.00' height='4.55' style='stroke-width: 0.75; stroke: #D3D3D3; fill: #A6DBA0;' />
<rect x='330.40' y='262.19' width='32.00' height='4.55' style='stroke-width: 0.75; stroke: #D3D3D3; fill: #5AAE61;' />
<rect x='362.40' y='262.19' width='32.00' height='4.55' style='stroke-width: 0.75; stroke: #D3D3D3; fill: #1B7837;' />
<rect x='394.40' y='262.19' width='32.00' height='4.55' style='stroke-width: 0.75; stroke: #D3D3D3; fill: #00441B;' />
<rect x='74.40' y='256.50' width='32.00' height='4.55' style='stroke-width: 0.75; stroke: #D3D3D3; fill: #7F3B08;' />
<rect x='106.40' y='256.50' width='32.00' height='4.55' style='stroke-width: 0.75; stroke: #D3D3D3; fill: #B35806;' />
<rect x='138.40' y='256.50' width='32.00' height='4.55' style='stroke-width: 0.75; stroke: #D3D3D3; fill: #E08214;' />
<rect x='170.40' y='256.50' width='32.00' height='4.55' style='stroke-width: 0.75; stroke: #D3D3D3; fill: #FDB863;' />
<rect x='202.40' y='256.50' width='32.00' height='4.55' style='stroke-width: 0.75; stroke: #D3D3D3; fill: #FEE0B6;' />
<rect x='234.40' y='256.50' width='32.00' height='4.55' style='stroke-width: 0.75; stroke: #D3D3D3; fill: #F7F7F7;' />
<rect x='266.40' y='256.50' width='32.00' height='4.55' style='stroke-width: 0.75; stroke: #D3D3D3; fill: #D8DAEB;' />
<rect x='298.40' y='256.50' width='32.00' height='4.55' style='stroke-width: 0.75; stroke: #D3D3D3; fill: #B2ABD2;' />
<rect x='330.40' y='256.50' width='32.00' height='4.55' style='stroke-width: 0.75; stroke: #D3D3D3; fill: #8073AC;' />
<rect x='362.40' y='256.50' width='32.00' height='4.55' style='stroke-width: 0.75; stroke: #D3D3D3; fill: #542788;' />
<rect x='394.40' y='256.50' width='32.00' height='4.55' style='stroke-width: 0.75; stroke: #D3D3D3; fill: #2D004B;' />
<rect x='74.40' y='250.80' width='32.00' height='4.55' style='stroke-width: 0.75; stroke: #D3D3D3; fill: #67001F;' />
<rect x='106.40' y='250.80' width='32.00' height='4.55' style='stroke-width: 0.75; stroke: #D3D3D3; fill: #B2182B;' />
<rect x='138.40' y='250.80' width='32.00' height='4.55' style='stroke-width: 0.75; stroke: #D3D3D3; fill: #D6604D;' />
<rect x='170.40' y='250.80' width='32.00' height='4.55' style='stroke-width: 0.75; stroke: #D3D3D3; fill: #F4A582;' />
<rect x='202.40' y='250.80' width='32.00' height='4.55' style='stroke-width: 0.75; stroke: #D3D3D3; fill: #FDDBC7;' />
<rect x='234.40' y='250.80' width='32.00' height='4.55' style='stroke-width: 0.75; stroke: #D3D3D3; fill: #F7F7F7;' />
<rect x='266.40' y='250.80' width='32.00' height='4.55' style='stroke-width: 0.75; stroke: #D3D3D3; fill: #D1E5F0;' />
<rect x='298.40' y='250.80' width='32.00' height='4.55' style='stroke-width: 0.75; stroke: #D3D3D3; fill: #92C5DE;' />
<rect x='330.40' y='250.80' width='32.00' height='4.55' style='stroke-width: 0.75; stroke: #D3D3D3; fill: #4393C3;' />
<rect x='362.40' y='250.80' width='32.00' height='4.55' style='stroke-width: 0.75; stroke: #D3D3D3; fill: #2166AC;' />
<rect x='394.40' y='250.80' width='32.00' height='4.55' style='stroke-width: 0.75; stroke: #D3D3D3; fill: #053061;' />
<rect x='74.40' y='245.11' width='32.00' height='4.55' style='stroke-width: 0.75; stroke: #D3D3D3; fill: #67001F;' />
<rect x='106.40' y='245.11' width='32.00' height='4.55' style='stroke-width: 0.75; stroke: #D3D3D3; fill: #B2182B;' />
<rect x='138.40' y='245.11' width='32.00' height='4.55' style='stroke-width: 0.75; stroke: #D3D3D3; fill: #D6604D;' />
<rect x='170.40' y='245.11' width='32.00' height='4.55' style='stroke-width: 0.75; stroke: #D3D3D3; fill: #F4A582;' />
<rect x='202.40' y='245.11' width='32.00' height='4.55' style='stroke-width: 0.75; stroke: #D3D3D3; fill: #FDDBC7;' />
<rect x='234.40' y='245.11' width='32.00' height='4.55' style='stroke-width: 0.75; stroke: #D3D3D3; fill: #FFFFFF;' />
<rect x='266.40' y='245.11' width='32.00' height='4.55' style='stroke-width: 0.75; stroke: #D3D3D3; fill: #E0E0E0;' />
<rect x='298.40' y='245.11' width='32.00' height='4.55' style='stroke-width: 0.75; stroke: #D3D3D3; fill: #BABABA;' />
<rect x='330.40' y='245.11' width='32.00' height='4.55' style='stroke-width: 0.75; stroke: #D3D3D3; fill: #878787;' />
<rect x='362.40' y='245.11' width='32.00' height='4.55' style='stroke-width: 0.75; stroke: #D3D3D3; fill: #4D4D4D;' />
<rect x='394.40' y='245.11' width='32.00' height='4.55' style='stroke-width: 0.75; stroke: #D3D3D3; fill: #1A1A1A;' />
<rect x='74.40' y='239.42' width='32.00' height='4.55' style='stroke-width: 0.75; stroke: #D3D3D3; fill: #A50026;' />
<rect x='106.40' y='239.42' width='32.00' height='4.55' style='stroke-width: 0.75; stroke: #D3D3D3; fill: #D73027;' />
<rect x='138.40' y='239.42' width='32.00' height='4.55' style='stroke-width: 0.75; stroke: #D3D3D3; fill: #F46D43;' />
<rect x='170.40' y='239.42' width='32.00' height='4.55' style='stroke-width: 0.75; stroke: #D3D3D3; fill: #FDAE61;' />
<rect x='202.40' y='239.42' width='32.00' height='4.55' style='stroke-width: 0.75; stroke: #D3D3D3; fill: #FEE090;' />
<rect x='234.40' y='239.42' width='32.00' height='4.55' style='stroke-width: 0.75; stroke: #D3D3D3; fill: #FFFFBF;' />
<rect x='266.40' y='239.42' width='32.00' height='4.55' style='stroke-width: 0.75; stroke: #D3D3D3; fill: #E0F3F8;' />
<rect x='298.40' y='239.42' width='32.00' height='4.55' style='stroke-width: 0.75; stroke: #D3D3D3; fill: #ABD9E9;' />
<rect x='330.40' y='239.42' width='32.00' height='4.55' style='stroke-width: 0.75; stroke: #D3D3D3; fill: #74ADD1;' />
<rect x='362.40' y='239.42' width='32.00' height='4.55' style='stroke-width: 0.75; stroke: #D3D3D3; fill: #4575B4;' />
<rect x='394.40' y='239.42' width='32.00' height='4.55' style='stroke-width: 0.75; stroke: #D3D3D3; fill: #313695;' />
<rect x='74.40' y='233.72' width='32.00' height='4.55' style='stroke-width: 0.75; stroke: #D3D3D3; fill: #A50026;' />
<rect x='106.40' y='233.72' width='32.00' height='4.55' style='stroke-width: 0.75; stroke: #D3D3D3; fill: #D73027;' />
<rect x='138.40' y='233.72' width='32.00' height='4.55' style='stroke-width: 0.75; stroke: #D3D3D3; fill: #F46D43;' />
<rect x='170.40' y='233.72' width='32.00' height='4.55' style='stroke-width: 0.75; stroke: #D3D3D3; fill: #FDAE61;' />
<rect x='202.40' y='233.72' width='32.00' height='4.55' style='stroke-width: 0.75; stroke: #D3D3D3; fill: #FEE08B;' />
<rect x='234.40' y='233.72' width='32.00' height='4.55' style='stroke-width: 0.75; stroke: #D3D3D3; fill: #FFFFBF;' />
<rect x='266.40' y='233.72' width='32.00' height='4.55' style='stroke-width: 0.75; stroke: #D3D3D3; fill: #D9EF8B;' />
<rect x='298.40' y='233.72' width='32.00' height='4.55' style='stroke-width: 0.75; stroke: #D3D3D3; fill: #A6D96A;' />
<rect x='330.40' y='233.72' width='32.00' height='4.55' style='stroke-width: 0.75; stroke: #D3D3D3; fill: #66BD63;' />
<rect x='362.40' y='233.72' width='32.00' height='4.55' style='stroke-width: 0.75; stroke: #D3D3D3; fill: #1A9850;' />
<rect x='394.40' y='233.72' width='32.00' height='4.55' style='stroke-width: 0.75; stroke: #D3D3D3; fill: #006837;' />
<rect x='74.40' y='228.03' width='32.00' height='4.55' style='stroke-width: 0.75; stroke: #D3D3D3; fill: #9E0142;' />
<rect x='106.40' y='228.03' width='32.00' height='4.55' style='stroke-width: 0.75; stroke: #D3D3D3; fill: #D53E4F;' />
<rect x='138.40' y='228.03' width='32.00' height='4.55' style='stroke-width: 0.75; stroke: #D3D3D3; fill: #F46D43;' />
<rect x='170.40' y='228.03' width='32.00' height='4.55' style='stroke-width: 0.75; stroke: #D3D3D3; fill: #FDAE61;' />
<rect x='202.40' y='228.03' width='32.00' height='4.55' style='stroke-width: 0.75; stroke: #D3D3D3; fill: #FEE08B;' />
<rect x='234.40' y='228.03' width='32.00' height='4.55' style='stroke-width: 0.75; stroke: #D3D3D3; fill: #FFFFBF;' />
<rect x='266.40' y='228.03' width='32.00' height='4.55' style='stroke-width: 0.75; stroke: #D3D3D3; fill: #E6F598;' />
<rect x='298.40' y='228.03' width='32.00' height='4.55' style='stroke-width: 0.75; stroke: #D3D3D3; fill: #ABDDA4;' />
<rect x='330.40' y='228.03' width='32.00' height='4.55' style='stroke-width: 0.75; stroke: #D3D3D3; fill: #66C2A5;' />
<rect x='362.40' y='228.03' width='32.00' height='4.55' style='stroke-width: 0.75; stroke: #D3D3D3; fill: #3288BD;' />
<rect x='394.40' y='228.03' width='32.00' height='4.55' style='stroke-width: 0.75; stroke: #D3D3D3; fill: #5E4FA2;' />
<rect x='74.40' y='216.64' width='32.00' height='4.55' style='stroke-width: 0.75; stroke: #D3D3D3; fill: #7FC97F;' />
<rect x='106.40' y='216.64' width='32.00' height='4.55' style='stroke-width: 0.75; stroke: #D3D3D3; fill: #BEAED4;' />
<rect x='138.40' y='216.64' width='32.00' height='4.55' style='stroke-width: 0.75; stroke: #D3D3D3; fill: #FDC086;' />
<rect x='170.40' y='216.64' width='32.00' height='4.55' style='stroke-width: 0.75; stroke: #D3D3D3; fill: #FFFF99;' />
<rect x='202.40' y='216.64' width='32.00' height='4.55' style='stroke-width: 0.75; stroke: #D3D3D3; fill: #386CB0;' />
<rect x='234.40' y='216.64' width='32.00' height='4.55' style='stroke-width: 0.75; stroke: #D3D3D3; fill: #F0027F;' />
<rect x='266.40' y='216.64' width='32.00' height='4.55' style='stroke-width: 0.75; stroke: #D3D3D3; fill: #BF5B17;' />
<rect x='298.40' y='216.64' width='32.00' height='4.55' style='stroke-width: 0.75; stroke: #D3D3D3; fill: #666666;' />
<rect x='74.40' y='210.95' width='32.00' height='4.55' style='stroke-width: 0.75; stroke: #D3D3D3; fill: #1B9E77;' />
<rect x='106.40' y='210.95' width='32.00' height='4.55' style='stroke-width: 0.75; stroke: #D3D3D3; fill: #D95F02;' />
<rect x='138.40' y='210.95' width='32.00' height='4.55' style='stroke-width: 0.75; stroke: #D3D3D3; fill: #7570B3;' />
<rect x='170.40' y='210.95' width='32.00' height='4.55' style='stroke-width: 0.75; stroke: #D3D3D3; fill: #E7298A;' />
<rect x='202.40' y='210.95' width='32.00' height='4.55' style='stroke-width: 0.75; stroke: #D3D3D3; fill: #66A61E;' />
<rect x='234.40' y='210.95' width='32.00' height='4.55' style='stroke-width: 0.75; stroke: #D3D3D3; fill: #E6AB02;' />
<rect x='266.40' y='210.95' width='32.00' height='4.55' style='stroke-width: 0.75; stroke: #D3D3D3; fill: #A6761D;' />
<rect x='298.40' y='210.95' width='32.00' height='4.55' style='stroke-width: 0.75; stroke: #D3D3D3; fill: #666666;' />
<rect x='74.40' y='205.25' width='32.00' height='4.55' style='stroke-width: 0.75; stroke: #D3D3D3; fill: #A6CEE3;' />
<rect x='106.40' y='205.25' width='32.00' height='4.55' style='stroke-width: 0.75; stroke: #D3D3D3; fill: #1F78B4;' />
<rect x='138.40' y='205.25' width='32.00' height='4.55' style='stroke-width: 0.75; stroke: #D3D3D3; fill: #B2DF8A;' />
<rect x='170.40' y='205.25' width='32.00' height='4.55' style='stroke-width: 0.75; stroke: #D3D3D3; fill: #33A02C;' />
<rect x='202.40' y='205.25' width='32.00' height='4.55' style='stroke-width: 0.75; stroke: #D3D3D3; fill: #FB9A99;' />
<rect x='234.40' y='205.25' width='32.00' height='4.55' style='stroke-width: 0.75; stroke: #D3D3D3; fill: #E31A1C;' />
<rect x='266.40' y='205.25' width='32.00' height='4.55' style='stroke-width: 0.75; stroke: #D3D3D3; fill: #FDBF6F;' />
<rect x='298.40' y='205.25' width='32.00' height='4.55' style='stroke-width: 0.75; stroke: #D3D3D3; fill: #FF7F00;' />
<rect x='330.40' y='205.25' width='32.00' height='4.55' style='stroke-width: 0.75; stroke: #D3D3D3; fill: #CAB2D6;' />
<rect x='362.40' y='205.25' width='32.00' height='4.55' style='stroke-width: 0.75; stroke: #D3D3D3; fill: #6A3D9A;' />
<rect x='394.40' y='205.25' width='32.00' height='4.55' style='stroke-width: 0.75; stroke: #D3D3D3; fill: #FFFF99;' />
<rect x='426.40' y='205.25' width='32.00' height='4.55' style='stroke-width: 0.75; stroke: #D3D3D3; fill: #B15928;' />
<rect x='74.40' y='199.56' width='32.00' height='4.55' style='stroke-width: 0.75; stroke: #D3D3D3; fill: #FBB4AE;' />
<rect x='106.40' y='199.56' width='32.00' height='4.55' style='stroke-width: 0.75; stroke: #D3D3D3; fill: #B3CDE3;' />
<rect x='138.40' y='199.56' width='32.00' height='4.55' style='stroke-width: 0.75; stroke: #D3D3D3; fill: #CCEBC5;' />
<rect x='170.40' y='199.56' width='32.00' height='4.55' style='stroke-width: 0.75; stroke: #D3D3D3; fill: #DECBE4;' />
<rect x='202.40' y='199.56' width='32.00' height='4.55' style='stroke-width: 0.75; stroke: #D3D3D3; fill: #FED9A6;' />
<rect x='234.40' y='199.56' width='32.00' height='4.55' style='stroke-width: 0.75; stroke: #D3D3D3; fill: #FFFFCC;' />
<rect x='266.40' y='199.56' width='32.00' height='4.55' style='stroke-width: 0.75; stroke: #D3D3D3; fill: #E5D8BD;' />
<rect x='298.40' y='199.56' width='32.00' height='4.55' style='stroke-width: 0.75; stroke: #D3D3D3; fill: #FDDAEC;' />
<rect x='330.40' y='199.56' width='32.00' height='4.55' style='stroke-width: 0.75; stroke: #D3D3D3; fill: #F2F2F2;' />
<rect x='74.40' y='193.87' width='32.00' height='4.55' style='stroke-width: 0.75; stroke: #D3D3D3; fill: #B3E2CD;' />
<rect x='106.40' y='193.87' width='32.00' height='4.55' style='stroke-width: 0.75; stroke: #D3D3D3; fill: #FDCDAC;' />
<rect x='138.40' y='193.87' width='32.00' height='4.55' style='stroke-width: 0.75; stroke: #D3D3D3; fill: #CBD5E8;' />
<rect x='170.40' y='193.87' width='32.00' height='4.55' style='stroke-width: 0.75; stroke: #D3D3D3; fill: #F4CAE4;' />
<rect x='202.40' y='193.87' width='32.00' height='4.55' style='stroke-width: 0.75; stroke: #D3D3D3; fill: #E6F5C9;' />
<rect x='234.40' y='193.87' width='32.00' height='4.55' style='stroke-width: 0.75; stroke: #D3D3D3; fill: #FFF2AE;' />
<rect x='266.40' y='193.87' width='32.00' height='4.55' style='stroke-width: 0.75; stroke: #D3D3D3; fill: #F1E2CC;' />
<rect x='298.40' y='193.87' width='32.00' height='4.55' style='stroke-width: 0.75; stroke: #D3D3D3; fill: #CCCCCC;' />
<rect x='74.40' y='188.17' width='32.00' height='4.55' style='stroke-width: 0.75; stroke: #D3D3D3; fill: #E41A1C;' />
<rect x='106.40' y='188.17' width='32.00' height='4.55' style='stroke-width: 0.75; stroke: #D3D3D3; fill: #377EB8;' />
<rect x='138.40' y='188.17' width='32.00' height='4.55' style='stroke-width: 0.75; stroke: #D3D3D3; fill: #4DAF4A;' />
<rect x='170.40' y='188.17' width='32.00' height='4.55' style='stroke-width: 0.75; stroke: #D3D3D3; fill: #984EA3;' />
<rect x='202.40' y='188.17' width='32.00' height='4.55' style='stroke-width: 0.75; stroke: #D3D3D3; fill: #FF7F00;' />
<rect x='234.40' y='188.17' width='32.00' height='4.55' style='stroke-width: 0.75; stroke: #D3D3D3; fill: #FFFF33;' />
<rect x='266.40' y='188.17' width='32.00' height='4.55' style='stroke-width: 0.75; stroke: #D3D3D3; fill: #A65628;' />
<rect x='298.40' y='188.17' width='32.00' height='4.55' style='stroke-width: 0.75; stroke: #D3D3D3; fill: #F781BF;' />
<rect x='330.40' y='188.17' width='32.00' height='4.55' style='stroke-width: 0.75; stroke: #D3D3D3; fill: #999999;' />
<rect x='74.40' y='182.48' width='32.00' height='4.55' style='stroke-width: 0.75; stroke: #D3D3D3; fill: #66C2A5;' />
<rect x='106.40' y='182.48' width='32.00' height='4.55' style='stroke-width: 0.75; stroke: #D3D3D3; fill: #FC8D62;' />
<rect x='138.40' y='182.48' width='32.00' height='4.55' style='stroke-width: 0.75; stroke: #D3D3D3; fill: #8DA0CB;' />
<rect x='170.40' y='182.48' width='32.00' height='4.55' style='stroke-width: 0.75; stroke: #D3D3D3; fill: #E78AC3;' />
<rect x='202.40' y='182.48' width='32.00' height='4.55' style='stroke-width: 0.75; stroke: #D3D3D3; fill: #A6D854;' />
<rect x='234.40' y='182.48' width='32.00' height='4.55' style='stroke-width: 0.75; stroke: #D3D3D3; fill: #FFD92F;' />
<rect x='266.40' y='182.48' width='32.00' height='4.55' style='stroke-width: 0.75; stroke: #D3D3D3; fill: #E5C494;' />
<rect x='298.40' y='182.48' width='32.00' height='4.55' style='stroke-width: 0.75; stroke: #D3D3D3; fill: #B3B3B3;' />
<rect x='74.40' y='176.79' width='32.00' height='4.55' style='stroke-width: 0.75; stroke: #D3D3D3; fill: #8DD3C7;' />
<rect x='106.40' y='176.79' width='32.00' height='4.55' style='stroke-width: 0.75; stroke: #D3D3D3; fill: #FFFFB3;' />
<rect x='138.40' y='176.79' width='32.00' height='4.55' style='stroke-width: 0.75; stroke: #D3D3D3; fill: #BEBADA;' />
<rect x='170.40' y='176.79' width='32.00' height='4.55' style='stroke-width: 0.75; stroke: #D3D3D3; fill: #FB8072;' />
<rect x='202.40' y='176.79' width='32.00' height='4.55' style='stroke-width: 0.75; stroke: #D3D3D3; fill: #80B1D3;' />
<rect x='234.40' y='176.79' width='32.00' height='4.55' style='stroke-width: 0.75; stroke: #D3D3D3; fill: #FDB462;' />
<rect x='266.40' y='176.79' width='32.00' height='4.55' style='stroke-width: 0.75; stroke: #D3D3D3; fill: #B3DE69;' />
<rect x='298.40' y='176.79' width='32.00' height='4.55' style='stroke-width: 0.75; stroke: #D3D3D3; fill: #FCCDE5;' />
<rect x='330.40' y='176.79' width='32.00' height='4.55' style='stroke-width: 0.75; stroke: #D3D3D3; fill: #D9D9D9;' />
<rect x='362.40' y='176.79' width='32.00' height='4.55' style='stroke-width: 0.75; stroke: #D3D3D3; fill: #BC80BD;' />
<rect x='394.40' y='176.79' width='32.00' height='4.55' style='stroke-width: 0.75; stroke: #D3D3D3; fill: #CCEBC5;' />
<rect x='426.40' y='176.79' width='32.00' height='4.55' style='stroke-width: 0.75; stroke: #D3D3D3; fill: #FFED6F;' />
<rect x='74.40' y='165.40' width='32.00' height='4.55' style='stroke-width: 0.75; stroke: #D3D3D3; fill: #F7FBFF;' />
<rect x='106.40' y='165.40' width='32.00' height='4.55' style='stroke-width: 0.75; stroke: #D3D3D3; fill: #DEEBF7;' />
<rect x='138.40' y='165.40' width='32.00' height='4.55' style='stroke-width: 0.75; stroke: #D3D3D3; fill: #C6DBEF;' />
<rect x='170.40' y='165.40' width='32.00' height='4.55' style='stroke-width: 0.75; stroke: #D3D3D3; fill: #9ECAE1;' />
<rect x='202.40' y='165.40' width='32.00' height='4.55' style='stroke-width: 0.75; stroke: #D3D3D3; fill: #6BAED6;' />
<rect x='234.40' y='165.40' width='32.00' height='4.55' style='stroke-width: 0.75; stroke: #D3D3D3; fill: #4292C6;' />
<rect x='266.40' y='165.40' width='32.00' height='4.55' style='stroke-width: 0.75; stroke: #D3D3D3; fill: #2171B5;' />
<rect x='298.40' y='165.40' width='32.00' height='4.55' style='stroke-width: 0.75; stroke: #D3D3D3; fill: #08519C;' />
<rect x='330.40' y='165.40' width='32.00' height='4.55' style='stroke-width: 0.75; stroke: #D3D3D3; fill: #08306B;' />
<rect x='74.40' y='159.70' width='32.00' height='4.55' style='stroke-width: 0.75; stroke: #D3D3D3; fill: #F7FCFD;' />
<rect x='106.40' y='159.70' width='32.00' height='4.55' style='stroke-width: 0.75; stroke: #D3D3D3; fill: #E5F5F9;' />
<rect x='138.40' y='159.70' width='32.00' height='4.55' style='stroke-width: 0.75; stroke: #D3D3D3; fill: #CCECE6;' />
<rect x='170.40' y='159.70' width='32.00' height='4.55' style='stroke-width: 0.75; stroke: #D3D3D3; fill: #99D8C9;' />
<rect x='202.40' y='159.70' width='32.00' height='4.55' style='stroke-width: 0.75; stroke: #D3D3D3; fill: #66C2A4;' />
<rect x='234.40' y='159.70' width='32.00' height='4.55' style='stroke-width: 0.75; stroke: #D3D3D3; fill: #41AE76;' />
<rect x='266.40' y='159.70' width='32.00' height='4.55' style='stroke-width: 0.75; stroke: #D3D3D3; fill: #238B45;' />
<rect x='298.40' y='159.70' width='32.00' height='4.55' style='stroke-width: 0.75; stroke: #D3D3D3; fill: #006D2C;' />
<rect x='330.40' y='159.70' width='32.00' height='4.55' style='stroke-width: 0.75; stroke: #D3D3D3; fill: #00441B;' />
<rect x='74.40' y='154.01' width='32.00' height='4.55' style='stroke-width: 0.75; stroke: #D3D3D3; fill: #F7FCFD;' />
<rect x='106.40' y='154.01' width='32.00' height='4.55' style='stroke-width: 0.75; stroke: #D3D3D3; fill: #E0ECF4;' />
<rect x='138.40' y='154.01' width='32.00' height='4.55' style='stroke-width: 0.75; stroke: #D3D3D3; fill: #BFD3E6;' />
<rect x='170.40' y='154.01' width='32.00' height='4.55' style='stroke-width: 0.75; stroke: #D3D3D3; fill: #9EBCDA;' />
<rect x='202.40' y='154.01' width='32.00' height='4.55' style='stroke-width: 0.75; stroke: #D3D3D3; fill: #8C96C6;' />
<rect x='234.40' y='154.01' width='32.00' height='4.55' style='stroke-width: 0.75; stroke: #D3D3D3; fill: #8C6BB1;' />
<rect x='266.40' y='154.01' width='32.00' height='4.55' style='stroke-width: 0.75; stroke: #D3D3D3; fill: #88419D;' />
<rect x='298.40' y='154.01' width='32.00' height='4.55' style='stroke-width: 0.75; stroke: #D3D3D3; fill: #810F7C;' />
<rect x='330.40' y='154.01' width='32.00' height='4.55' style='stroke-width: 0.75; stroke: #D3D3D3; fill: #4D004B;' />
<rect x='74.40' y='148.32' width='32.00' height='4.55' style='stroke-width: 0.75; stroke: #D3D3D3; fill: #F7FCF0;' />
<rect x='106.40' y='148.32' width='32.00' height='4.55' style='stroke-width: 0.75; stroke: #D3D3D3; fill: #E0F3DB;' />
<rect x='138.40' y='148.32' width='32.00' height='4.55' style='stroke-width: 0.75; stroke: #D3D3D3; fill: #CCEBC5;' />
<rect x='170.40' y='148.32' width='32.00' height='4.55' style='stroke-width: 0.75; stroke: #D3D3D3; fill: #A8DDB5;' />
<rect x='202.40' y='148.32' width='32.00' height='4.55' style='stroke-width: 0.75; stroke: #D3D3D3; fill: #7BCCC4;' />
<rect x='234.40' y='148.32' width='32.00' height='4.55' style='stroke-width: 0.75; stroke: #D3D3D3; fill: #4EB3D3;' />
<rect x='266.40' y='148.32' width='32.00' height='4.55' style='stroke-width: 0.75; stroke: #D3D3D3; fill: #2B8CBE;' />
<rect x='298.40' y='148.32' width='32.00' height='4.55' style='stroke-width: 0.75; stroke: #D3D3D3; fill: #0868AC;' />
<rect x='330.40' y='148.32' width='32.00' height='4.55' style='stroke-width: 0.75; stroke: #D3D3D3; fill: #084081;' />
<rect x='74.40' y='142.62' width='32.00' height='4.55' style='stroke-width: 0.75; stroke: #D3D3D3; fill: #F7FCF5;' />
<rect x='106.40' y='142.62' width='32.00' height='4.55' style='stroke-width: 0.75; stroke: #D3D3D3; fill: #E5F5E0;' />
<rect x='138.40' y='142.62' width='32.00' height='4.55' style='stroke-width: 0.75; stroke: #D3D3D3; fill: #C7E9C0;' />
<rect x='170.40' y='142.62' width='32.00' height='4.55' style='stroke-width: 0.75; stroke: #D3D3D3; fill: #A1D99B;' />
<rect x='202.40' y='142.62' width='32.00' height='4.55' style='stroke-width: 0.75; stroke: #D3D3D3; fill: #74C476;' />
<rect x='234.40' y='142.62' width='32.00' height='4.55' style='stroke-width: 0.75; stroke: #D3D3D3; fill: #41AB5D;' />
<rect x='266.40' y='142.62' width='32.00' height='4.55' style='stroke-width: 0.75; stroke: #D3D3D3; fill: #238B45;' />
<rect x='298.40' y='142.62' width='32.00' height='4.55' style='stroke-width: 0.75; stroke: #D3D3D3; fill: #006D2C;' />
<rect x='330.40' y='142.62' width='32.00' height='4.55' style='stroke-width: 0.75; stroke: #D3D3D3; fill: #00441B;' />
<rect x='74.40' y='136.93' width='32.00' height='4.55' style='stroke-width: 0.75; stroke: #D3D3D3; fill: #FFFFFF;' />
<rect x='106.40' y='136.93' width='32.00' height='4.55' style='stroke-width: 0.75; stroke: #D3D3D3; fill: #F0F0F0;' />
<rect x='138.40' y='136.93' width='32.00' height='4.55' style='stroke-width: 0.75; stroke: #D3D3D3; fill: #D9D9D9;' />
<rect x='170.40' y='136.93' width='32.00' height='4.55' style='stroke-width: 0.75; stroke: #D3D3D3; fill: #BDBDBD;' />
<rect x='202.40' y='136.93' width='32.00' height='4.55' style='stroke-width: 0.75; stroke: #D3D3D3; fill: #969696;' />
<rect x='234.40' y='136.93' width='32.00' height='4.55' style='stroke-width: 0.75; stroke: #D3D3D3; fill: #737373;' />
<rect x='266.40' y='136.93' width='32.00' height='4.55' style='stroke-width: 0.75; stroke: #D3D3D3; fill: #525252;' />
<rect x='298.40' y='136.93' width='32.00' height='4.55' style='stroke-width: 0.75; stroke: #D3D3D3; fill: #252525;' />
<rect x='330.40' y='136.93' width='32.00' height='4.55' style='stroke-width: 0.75; stroke: #D3D3D3; fill: #000000;' />
<rect x='74.40' y='131.24' width='32.00' height='4.55' style='stroke-width: 0.75; stroke: #D3D3D3; fill: #FFF5EB;' />
<rect x='106.40' y='131.24' width='32.00' height='4.55' style='stroke-width: 0.75; stroke: #D3D3D3; fill: #FEE6CE;' />
<rect x='138.40' y='131.24' width='32.00' height='4.55' style='stroke-width: 0.75; stroke: #D3D3D3; fill: #FDD0A2;' />
<rect x='170.40' y='131.24' width='32.00' height='4.55' style='stroke-width: 0.75; stroke: #D3D3D3; fill: #FDAE6B;' />
<rect x='202.40' y='131.24' width='32.00' height='4.55' style='stroke-width: 0.75; stroke: #D3D3D3; fill: #FD8D3C;' />
<rect x='234.40' y='131.24' width='32.00' height='4.55' style='stroke-width: 0.75; stroke: #D3D3D3; fill: #F16913;' />
<rect x='266.40' y='131.24' width='32.00' height='4.55' style='stroke-width: 0.75; stroke: #D3D3D3; fill: #D94801;' />
<rect x='298.40' y='131.24' width='32.00' height='4.55' style='stroke-width: 0.75; stroke: #D3D3D3; fill: #A63603;' />
<rect x='330.40' y='131.24' width='32.00' height='4.55' style='stroke-width: 0.75; stroke: #D3D3D3; fill: #7F2704;' />
<rect x='74.40' y='125.54' width='32.00' height='4.55' style='stroke-width: 0.75; stroke: #D3D3D3; fill: #FFF7EC;' />
<rect x='106.40' y='125.54' width='32.00' height='4.55' style='stroke-width: 0.75; stroke: #D3D3D3; fill: #FEE8C8;' />
<rect x='138.40' y='125.54' width='32.00' height='4.55' style='stroke-width: 0.75; stroke: #D3D3D3; fill: #FDD49E;' />
<rect x='170.40' y='125.54' width='32.00' height='4.55' style='stroke-width: 0.75; stroke: #D3D3D3; fill: #FDBB84;' />
<rect x='202.40' y='125.54' width='32.00' height='4.55' style='stroke-width: 0.75; stroke: #D3D3D3; fill: #FC8D59;' />
<rect x='234.40' y='125.54' width='32.00' height='4.55' style='stroke-width: 0.75; stroke: #D3D3D3; fill: #EF6548;' />
<rect x='266.40' y='125.54' width='32.00' height='4.55' style='stroke-width: 0.75; stroke: #D3D3D3; fill: #D7301F;' />
<rect x='298.40' y='125.54' width='32.00' height='4.55' style='stroke-width: 0.75; stroke: #D3D3D3; fill: #B30000;' />
<rect x='330.40' y='125.54' width='32.00' height='4.55' style='stroke-width: 0.75; stroke: #D3D3D3; fill: #7F0000;' />
<rect x='74.40' y='119.85' width='32.00' height='4.55' style='stroke-width: 0.75; stroke: #D3D3D3; fill: #FFF7FB;' />
<rect x='106.40' y='119.85' width='32.00' height='4.55' style='stroke-width: 0.75; stroke: #D3D3D3; fill: #ECE7F2;' />
<rect x='138.40' y='119.85' width='32.00' height='4.55' style='stroke-width: 0.75; stroke: #D3D3D3; fill: #D0D1E6;' />
<rect x='170.40' y='119.85' width='32.00' height='4.55' style='stroke-width: 0.75; stroke: #D3D3D3; fill: #A6BDDB;' />
<rect x='202.40' y='119.85' width='32.00' height='4.55' style='stroke-width: 0.75; stroke: #D3D3D3; fill: #74A9CF;' />
<rect x='234.40' y='119.85' width='32.00' height='4.55' style='stroke-width: 0.75; stroke: #D3D3D3; fill: #3690C0;' />
<rect x='266.40' y='119.85' width='32.00' height='4.55' style='stroke-width: 0.75; stroke: #D3D3D3; fill: #0570B0;' />
<rect x='298.40' y='119.85' width='32.00' height='4.55' style='stroke-width: 0.75; stroke: #D3D3D3; fill: #045A8D;' />
<rect x='330.40' y='119.85' width='32.00' height='4.55' style='stroke-width: 0.75; stroke: #D3D3D3; fill: #023858;' />
<rect x='74.40' y='114.15' width='32.00' height='4.55' style='stroke-width: 0.75; stroke: #D3D3D3; fill: #FFF7FB;' />
<rect x='106.40' y='114.15' width='32.00' height='4.55' style='stroke-width: 0.75; stroke: #D3D3D3; fill: #ECE2F0;' />
<rect x='138.40' y='114.15' width='32.00' height='4.55' style='stroke-width: 0.75; stroke: #D3D3D3; fill: #D0D1E6;' />
<rect x='170.40' y='114.15' width='32.00' height='4.55' style='stroke-width: 0.75; stroke: #D3D3D3; fill: #A6BDDB;' />
<rect x='202.40' y='114.15' width='32.00' height='4.55' style='stroke-width: 0.75; stroke: #D3D3D3; fill: #67A9CF;' />
<rect x='234.40' y='114.15' width='32.00' height='4.55' style='stroke-width: 0.75; stroke: #D3D3D3; fill: #3690C0;' />
<rect x='266.40' y='114.15' width='32.00' height='4.55' style='stroke-width: 0.75; stroke: #D3D3D3; fill: #02818A;' />
<rect x='298.40' y='114.15' width='32.00' height='4.55' style='stroke-width: 0.75; stroke: #D3D3D3; fill: #016C59;' />
<rect x='330.40' y='114.15' width='32.00' height='4.55' style='stroke-width: 0.75; stroke: #D3D3D3; fill: #014636;' />
<rect x='74.40' y='108.46' width='32.00' height='4.55' style='stroke-width: 0.75; stroke: #D3D3D3; fill: #F7F4F9;' />
<rect x='106.40' y='108.46' width='32.00' height='4.55' style='stroke-width: 0.75; stroke: #D3D3D3; fill: #E7E1EF;' />
<rect x='138.40' y='108.46' width='32.00' height='4.55' style='stroke-width: 0.75; stroke: #D3D3D3; fill: #D4B9DA;' />
<rect x='170.40' y='108.46' width='32.00' height='4.55' style='stroke-width: 0.75; stroke: #D3D3D3; fill: #C994C7;' />
<rect x='202.40' y='108.46' width='32.00' height='4.55' style='stroke-width: 0.75; stroke: #D3D3D3; fill: #DF65B0;' />
<rect x='234.40' y='108.46' width='32.00' height='4.55' style='stroke-width: 0.75; stroke: #D3D3D3; fill: #E7298A;' />
<rect x='266.40' y='108.46' width='32.00' height='4.55' style='stroke-width: 0.75; stroke: #D3D3D3; fill: #CE1256;' />
<rect x='298.40' y='108.46' width='32.00' height='4.55' style='stroke-width: 0.75; stroke: #D3D3D3; fill: #980043;' />
<rect x='330.40' y='108.46' width='32.00' height='4.55' style='stroke-width: 0.75; stroke: #D3D3D3; fill: #67001F;' />
<rect x='74.40' y='102.77' width='32.00' height='4.55' style='stroke-width: 0.75; stroke: #D3D3D3; fill: #FCFBFD;' />
<rect x='106.40' y='102.77' width='32.00' height='4.55' style='stroke-width: 0.75; stroke: #D3D3D3; fill: #EFEDF5;' />
<rect x='138.40' y='102.77' width='32.00' height='4.55' style='stroke-width: 0.75; stroke: #D3D3D3; fill: #DADAEB;' />
<rect x='170.40' y='102.77' width='32.00' height='4.55' style='stroke-width: 0.75; stroke: #D3D3D3; fill: #BCBDDC;' />
<rect x='202.40' y='102.77' width='32.00' height='4.55' style='stroke-width: 0.75; stroke: #D3D3D3; fill: #9E9AC8;' />
<rect x='234.40' y='102.77' width='32.00' height='4.55' style='stroke-width: 0.75; stroke: #D3D3D3; fill: #807DBA;' />
<rect x='266.40' y='102.77' width='32.00' height='4.55' style='stroke-width: 0.75; stroke: #D3D3D3; fill: #6A51A3;' />
<rect x='298.40' y='102.77' width='32.00' height='4.55' style='stroke-width: 0.75; stroke: #D3D3D3; fill: #54278F;' />
<rect x='330.40' y='102.77' width='32.00' height='4.55' style='stroke-width: 0.75; stroke: #D3D3D3; fill: #3F007D;' />
<rect x='74.40' y='97.07' width='32.00' height='4.55' style='stroke-width: 0.75; stroke: #D3D3D3; fill: #FFF7F3;' />
<rect x='106.40' y='97.07' width='32.00' height='4.55' style='stroke-width: 0.75; stroke: #D3D3D3; fill: #FDE0DD;' />
<rect x='138.40' y='97.07' width='32.00' height='4.55' style='stroke-width: 0.75; stroke: #D3D3D3; fill: #FCC5C0;' />
<rect x='170.40' y='97.07' width='32.00' height='4.55' style='stroke-width: 0.75; stroke: #D3D3D3; fill: #FA9FB5;' />
<rect x='202.40' y='97.07' width='32.00' height='4.55' style='stroke-width: 0.75; stroke: #D3D3D3; fill: #F768A1;' />
<rect x='234.40' y='97.07' width='32.00' height='4.55' style='stroke-width: 0.75; stroke: #D3D3D3; fill: #DD3497;' />
<rect x='266.40' y='97.07' width='32.00' height='4.55' style='stroke-width: 0.75; stroke: #D3D3D3; fill: #AE017E;' />
<rect x='298.40' y='97.07' width='32.00' height='4.55' style='stroke-width: 0.75; stroke: #D3D3D3; fill: #7A0177;' />
<rect x='330.40' y='97.07' width='32.00' height='4.55' style='stroke-width: 0.75; stroke: #D3D3D3; fill: #49006A;' />
<rect x='74.40' y='91.38' width='32.00' height='4.55' style='stroke-width: 0.75; stroke: #D3D3D3; fill: #FFF5F0;' />
<rect x='106.40' y='91.38' width='32.00' height='4.55' style='stroke-width: 0.75; stroke: #D3D3D3; fill: #FEE0D2;' />
<rect x='138.40' y='91.38' width='32.00' height='4.55' style='stroke-width: 0.75; stroke: #D3D3D3; fill: #FCBBA1;' />
<rect x='170.40' y='91.38' width='32.00' height='4.55' style='stroke-width: 0.75; stroke: #D3D3D3; fill: #FC9272;' />
<rect x='202.40' y='91.38' width='32.00' height='4.55' style='stroke-width: 0.75; stroke: #D3D3D3; fill: #FB6A4A;' />
<rect x='234.40' y='91.38' width='32.00' height='4.55' style='stroke-width: 0.75; stroke: #D3D3D3; fill: #EF3B2C;' />
<rect x='266.40' y='91.38' width='32.00' height='4.55' style='stroke-width: 0.75; stroke: #D3D3D3; fill: #CB181D;' />
<rect x='298.40' y='91.38' width='32.00' height='4.55' style='stroke-width: 0.75; stroke: #D3D3D3; fill: #A50F15;' />
<rect x='330.40' y='91.38' width='32.00' height='4.55' style='stroke-width: 0.75; stroke: #D3D3D3; fill: #67000D;' />
<rect x='74.40' y='85.69' width='32.00' height='4.55' style='stroke-width: 0.75; stroke: #D3D3D3; fill: #FFFFE5;' />
<rect x='106.40' y='85.69' width='32.00' height='4.55' style='stroke-width: 0.75; stroke: #D3D3D3; fill: #F7FCB9;' />
<rect x='138.40' y='85.69' width='32.00' height='4.55' style='stroke-width: 0.75; stroke: #D3D3D3; fill: #D9F0A3;' />
<rect x='170.40' y='85.69' width='32.00' height='4.55' style='stroke-width: 0.75; stroke: #D3D3D3; fill: #ADDD8E;' />
<rect x='202.40' y='85.69' width='32.00' height='4.55' style='stroke-width: 0.75; stroke: #D3D3D3; fill: #78C679;' />
<rect x='234.40' y='85.69' width='32.00' height='4.55' style='stroke-width: 0.75; stroke: #D3D3D3; fill: #41AB5D;' />
<rect x='266.40' y='85.69' width='32.00' height='4.55' style='stroke-width: 0.75; stroke: #D3D3D3; fill: #238443;' />
<rect x='298.40' y='85.69' width='32.00' height='4.55' style='stroke-width: 0.75; stroke: #D3D3D3; fill: #006837;' />
<rect x='330.40' y='85.69' width='32.00' height='4.55' style='stroke-width: 0.75; stroke: #D3D3D3; fill: #004529;' />
<rect x='74.40' y='79.99' width='32.00' height='4.55' style='stroke-width: 0.75; stroke: #D3D3D3; fill: #FFFFD9;' />
<rect x='106.40' y='79.99' width='32.00' height='4.55' style='stroke-width: 0.75; stroke: #D3D3D3; fill: #EDF8B1;' />
<rect x='138.40' y='79.99' width='32.00' height='4.55' style='stroke-width: 0.75; stroke: #D3D3D3; fill: #C7E9B4;' />
<rect x='170.40' y='79.99' width='32.00' height='4.55' style='stroke-width: 0.75; stroke: #D3D3D3; fill: #7FCDBB;' />
<rect x='202.40' y='79.99' width='32.00' height='4.55' style='stroke-width: 0.75; stroke: #D3D3D3; fill: #41B6C4;' />
<rect x='234.40' y='79.99' width='32.00' height='4.55' style='stroke-width: 0.75; stroke: #D3D3D3; fill: #1D91C0;' />
<rect x='266.40' y='79.99' width='32.00' height='4.55' style='stroke-width: 0.75; stroke: #D3D3D3; fill: #225EA8;' />
<rect x='298.40' y='79.99' width='32.00' height='4.55' style='stroke-width: 0.75; stroke: #D3D3D3; fill: #253494;' />
<rect x='330.40' y='79.99' width='32.00' height='4.55' style='stroke-width: 0.75; stroke: #D3D3D3; fill: #081D58;' />
<rect x='74.40' y='74.30' width='32.00' height='4.55' style='stroke-width: 0.75; stroke: #D3D3D3; fill: #FFFFE5;' />
<rect x='106.40' y='74.30' width='32.00' height='4.55' style='stroke-width: 0.75; stroke: #D3D3D3; fill: #FFF7BC;' />
<rect x='138.40' y='74.30' width='32.00' height='4.55' style='stroke-width: 0.75; stroke: #D3D3D3; fill: #FEE391;' />
<rect x='170.40' y='74.30' width='32.00' height='4.55' style='stroke-width: 0.75; stroke: #D3D3D3; fill: #FEC44F;' />
<rect x='202.40' y='74.30' width='32.00' height='4.55' style='stroke-width: 0.75; stroke: #D3D3D3; fill: #FE9929;' />
<rect x='234.40' y='74.30' width='32.00' height='4.55' style='stroke-width: 0.75; stroke: #D3D3D3; fill: #EC7014;' />
<rect x='266.40' y='74.30' width='32.00' height='4.55' style='stroke-width: 0.75; stroke: #D3D3D3; fill: #CC4C02;' />
<rect x='298.40' y='74.30' width='32.00' height='4.55' style='stroke-width: 0.75; stroke: #D3D3D3; fill: #993404;' />
<rect x='330.40' y='74.30' width='32.00' height='4.55' style='stroke-width: 0.75; stroke: #D3D3D3; fill: #662506;' />
<rect x='74.40' y='68.61' width='32.00' height='4.55' style='stroke-width: 0.75; stroke: #D3D3D3; fill: #FFFFCC;' />
<rect x='106.40' y='68.61' width='32.00' height='4.55' style='stroke-width: 0.75; stroke: #D3D3D3; fill: #FFEDA0;' />
<rect x='138.40' y='68.61' width='32.00' height='4.55' style='stroke-width: 0.75; stroke: #D3D3D3; fill: #FED976;' />
<rect x='170.40' y='68.61' width='32.00' height='4.55' style='stroke-width: 0.75; stroke: #D3D3D3; fill: #FEB24C;' />
<rect x='202.40' y='68.61' width='32.00' height='4.55' style='stroke-width: 0.75; stroke: #D3D3D3; fill: #FD8D3C;' />
<rect x='234.40' y='68.61' width='32.00' height='4.55' style='stroke-width: 0.75; stroke: #D3D3D3; fill: #FC4E2A;' />
<rect x='266.40' y='68.61' width='32.00' height='4.55' style='stroke-width: 0.75; stroke: #D3D3D3; fill: #E31A1C;' />
<rect x='298.40' y='68.61' width='32.00' height='4.55' style='stroke-width: 0.75; stroke: #D3D3D3; fill: #BD0026;' />
<rect x='330.40' y='68.61' width='32.00' height='4.55' style='stroke-width: 0.75; stroke: #D3D3D3; fill: #800026;' />
</g>
<g clip-path='url(#cpMC4wMHw1MDQuMDB8MC4wMHwzNjAuMDA=)'>
<text x='71.20' y='280.16' text-anchor='end' style='font-size: 12.00px; font-family: Arial;' textLength='29.34px' lengthAdjust='spacingAndGlyphs'>BrBG</text>
<text x='71.20' y='274.47' text-anchor='end' style='font-size: 12.00px; font-family: Arial;' textLength='28.01px' lengthAdjust='spacingAndGlyphs'>PiYG</text>
<text x='71.20' y='268.77' text-anchor='end' style='font-size: 12.00px; font-family: Arial;' textLength='32.68px' lengthAdjust='spacingAndGlyphs'>PRGn</text>
<text x='71.20' y='263.07' text-anchor='end' style='font-size: 12.00px; font-family: Arial;' textLength='28.01px' lengthAdjust='spacingAndGlyphs'>PuOr</text>
<text x='71.20' y='257.29' text-anchor='end' style='font-size: 12.00px; font-family: Arial;' textLength='30.02px' lengthAdjust='spacingAndGlyphs'>RdBu</text>
<text x='71.20' y='250.52' text-anchor='end' style='font-size: 12.00px; font-family: Arial;' textLength='30.67px' lengthAdjust='spacingAndGlyphs'>RdGy</text>
<text x='71.20' y='245.90' text-anchor='end' style='font-size: 12.00px; font-family: Arial;' textLength='40.69px' lengthAdjust='spacingAndGlyphs'>RdYlBu</text>
<text x='71.20' y='240.31' text-anchor='end' style='font-size: 12.00px; font-family: Arial;' textLength='42.02px' lengthAdjust='spacingAndGlyphs'>RdYlGn</text>
<text x='71.20' y='233.47' text-anchor='end' style='font-size: 12.00px; font-family: Arial;' textLength='44.02px' lengthAdjust='spacingAndGlyphs'>Spectral</text>
<text x='71.20' y='223.11' text-anchor='end' style='font-size: 12.00px; font-family: Arial;' textLength='36.68px' lengthAdjust='spacingAndGlyphs'>Accent</text>
<text x='71.20' y='217.43' text-anchor='end' style='font-size: 12.00px; font-family: Arial;' textLength='32.01px' lengthAdjust='spacingAndGlyphs'>Dark2</text>
<text x='71.20' y='211.74' text-anchor='end' style='font-size: 12.00px; font-family: Arial;' textLength='34.69px' lengthAdjust='spacingAndGlyphs'>Paired</text>
<text x='71.20' y='206.02' text-anchor='end' style='font-size: 12.00px; font-family: Arial;' textLength='40.02px' lengthAdjust='spacingAndGlyphs'>Pastel1</text>
<text x='71.20' y='200.33' text-anchor='end' style='font-size: 12.00px; font-family: Arial;' textLength='40.02px' lengthAdjust='spacingAndGlyphs'>Pastel2</text>
<text x='71.20' y='194.75' text-anchor='end' style='font-size: 12.00px; font-family: Arial;' textLength='24.69px' lengthAdjust='spacingAndGlyphs'>Set1</text>
<text x='71.20' y='189.05' text-anchor='end' style='font-size: 12.00px; font-family: Arial;' textLength='24.69px' lengthAdjust='spacingAndGlyphs'>Set2</text>
<text x='71.20' y='183.36' text-anchor='end' style='font-size: 12.00px; font-family: Arial;' textLength='24.69px' lengthAdjust='spacingAndGlyphs'>Set3</text>
<text x='71.20' y='171.86' text-anchor='end' style='font-size: 12.00px; font-family: Arial;' textLength='30.02px' lengthAdjust='spacingAndGlyphs'>Blues</text>
<text x='71.20' y='166.29' text-anchor='end' style='font-size: 12.00px; font-family: Arial;' textLength='30.69px' lengthAdjust='spacingAndGlyphs'>BuGn</text>
<text x='71.20' y='160.51' text-anchor='end' style='font-size: 12.00px; font-family: Arial;' textLength='29.36px' lengthAdjust='spacingAndGlyphs'>BuPu</text>
<text x='71.20' y='154.90' text-anchor='end' style='font-size: 12.00px; font-family: Arial;' textLength='30.69px' lengthAdjust='spacingAndGlyphs'>GnBu</text>
<text x='71.20' y='149.20' text-anchor='end' style='font-size: 12.00px; font-family: Arial;' textLength='39.35px' lengthAdjust='spacingAndGlyphs'>Greens</text>
<text x='71.20' y='142.34' text-anchor='end' style='font-size: 12.00px; font-family: Arial;' textLength='32.00px' lengthAdjust='spacingAndGlyphs'>Greys</text>
<text x='71.20' y='136.61' text-anchor='end' style='font-size: 12.00px; font-family: Arial;' textLength='46.02px' lengthAdjust='spacingAndGlyphs'>Oranges</text>
<text x='71.20' y='132.11' text-anchor='end' style='font-size: 12.00px; font-family: Arial;' textLength='28.67px' lengthAdjust='spacingAndGlyphs'>OrRd</text>
<text x='71.20' y='126.35' text-anchor='end' style='font-size: 12.00px; font-family: Arial;' textLength='29.36px' lengthAdjust='spacingAndGlyphs'>PuBu</text>
<text x='71.20' y='120.74' text-anchor='end' style='font-size: 12.00px; font-family: Arial;' textLength='45.37px' lengthAdjust='spacingAndGlyphs'>PuBuGn</text>
<text x='71.20' y='114.95' text-anchor='end' style='font-size: 12.00px; font-family: Arial;' textLength='30.02px' lengthAdjust='spacingAndGlyphs'>PuRd</text>
<text x='71.20' y='108.10' text-anchor='end' style='font-size: 12.00px; font-family: Arial;' textLength='40.69px' lengthAdjust='spacingAndGlyphs'>Purples</text>
<text x='71.20' y='103.56' text-anchor='end' style='font-size: 12.00px; font-family: Arial;' textLength='30.02px' lengthAdjust='spacingAndGlyphs'>RdPu</text>
<text x='71.20' y='97.86' text-anchor='end' style='font-size: 12.00px; font-family: Arial;' textLength='28.02px' lengthAdjust='spacingAndGlyphs'>Reds</text>
<text x='71.20' y='92.27' text-anchor='end' style='font-size: 12.00px; font-family: Arial;' textLength='26.68px' lengthAdjust='spacingAndGlyphs'>YlGn</text>
<text x='71.20' y='86.58' text-anchor='end' style='font-size: 12.00px; font-family: Arial;' textLength='41.36px' lengthAdjust='spacingAndGlyphs'>YlGnBu</text>
<text x='71.20' y='80.87' text-anchor='end' style='font-size: 12.00px; font-family: Arial;' textLength='36.00px' lengthAdjust='spacingAndGlyphs'>YlOrBr</text>
<text x='71.20' y='75.18' text-anchor='end' style='font-size: 12.00px; font-family: Arial;' textLength='39.34px' lengthAdjust='spacingAndGlyphs'>YlOrRd</text>
</g>
</svg>
